{
  "contractName": "Context",
  "abi": [],
  "metadata": "{\"compiler\":{\"version\":\"0.8.0+commit.c7dfd78e\"},\"language\":\"Solidity\",\"output\":{\"abi\":[],\"devdoc\":{\"kind\":\"dev\",\"methods\":{},\"version\":1},\"userdoc\":{\"kind\":\"user\",\"methods\":{},\"version\":1}},\"settings\":{\"compilationTarget\":{\"/home/ubuntu/Desktop/CSB2010 Assignment/supply-chain-dapp/contracts/Context.sol\":\"Context\"},\"evmVersion\":\"istanbul\",\"libraries\":{},\"metadata\":{\"bytecodeHash\":\"ipfs\"},\"optimizer\":{\"enabled\":false,\"runs\":200},\"remappings\":[]},\"sources\":{\"/home/ubuntu/Desktop/CSB2010 Assignment/supply-chain-dapp/contracts/Context.sol\":{\"keccak256\":\"0xf930d2df426bfcfc1f7415be724f04081c96f4fb9ec8d0e3a521c07692dface0\",\"license\":\"MIT\",\"urls\":[\"bzz-raw://fc2bfdea0d2562c76fb3c4cf70a86c6ba25c5a30e8f8515c95aafdf8383f8395\",\"dweb:/ipfs/QmTbFya18786ckJfLYUoWau9jBTKfmWnWm5XSViWvB7PXN\"]}},\"version\":1}",
  "bytecode": "0x",
  "deployedBytecode": "0x",
  "immutableReferences": {},
  "generatedSources": [],
  "deployedGeneratedSources": [],
  "sourceMap": "",
  "deployedSourceMap": "",
  "source": "// SPDX-License-Identifier: MIT\n\npragma solidity ^0.8.0;\n\n/*\n * @dev Provides information about the current execution context, including the\n * sender of the transaction and its data. While these are generally available\n * via msg.sender and msg.data, they should not be accessed in such a direct\n * manner, since when dealing with meta-transactions the account sending and\n * paying for execution may not be the actual sender (as far as an application\n * is concerned).\n *\n * This contract is only required for intermediate, library-like contracts.\n */\nabstract contract Context {\n    function _msgSender() internal view virtual returns (address) {\n        return msg.sender;\n    }\n\n    function _msgData() internal view virtual returns (bytes calldata) {\n        this; // silence state mutability warning without generating bytecode - see https://github.com/ethereum/solidity/issues/2691\n        return msg.data;\n    }\n}\n",
  "sourcePath": "/home/ubuntu/Desktop/CSB2010 Assignment/supply-chain-dapp/contracts/Context.sol",
  "ast": {
    "absolutePath": "/home/ubuntu/Desktop/CSB2010 Assignment/supply-chain-dapp/contracts/Context.sol",
    "exportedSymbols": {
      "Context": [
        22
      ]
    },
    "id": 23,
    "license": "MIT",
    "nodeType": "SourceUnit",
    "nodes": [
      {
        "id": 1,
        "literals": [
          "solidity",
          "^",
          "0.8",
          ".0"
        ],
        "nodeType": "PragmaDirective",
        "src": "33:23:0"
      },
      {
        "abstract": true,
        "baseContracts": [],
        "contractDependencies": [],
        "contractKind": "contract",
        "fullyImplemented": true,
        "id": 22,
        "linearizedBaseContracts": [
          22
        ],
        "name": "Context",
        "nodeType": "ContractDefinition",
        "nodes": [
          {
            "body": {
              "id": 9,
              "nodeType": "Block",
              "src": "648:34:0",
              "statements": [
                {
                  "expression": {
                    "expression": {
                      "id": 6,
                      "name": "msg",
                      "nodeType": "Identifier",
                      "overloadedDeclarations": [],
                      "referencedDeclaration": 4294967281,
                      "src": "665:3:0",
                      "typeDescriptions": {
                        "typeIdentifier": "t_magic_message",
                        "typeString": "msg"
                      }
                    },
                    "id": 7,
                    "isConstant": false,
                    "isLValue": false,
                    "isPure": false,
                    "lValueRequested": false,
                    "memberName": "sender",
                    "nodeType": "MemberAccess",
                    "src": "665:10:0",
                    "typeDescriptions": {
                      "typeIdentifier": "t_address",
                      "typeString": "address"
                    }
                  },
                  "functionReturnParameters": 5,
                  "id": 8,
                  "nodeType": "Return",
                  "src": "658:17:0"
                }
              ]
            },
            "id": 10,
            "implemented": true,
            "kind": "function",
            "modifiers": [],
            "name": "_msgSender",
            "nodeType": "FunctionDefinition",
            "parameters": {
              "id": 2,
              "nodeType": "ParameterList",
              "parameters": [],
              "src": "605:2:0"
            },
            "returnParameters": {
              "id": 5,
              "nodeType": "ParameterList",
              "parameters": [
                {
                  "constant": false,
                  "id": 4,
                  "mutability": "mutable",
                  "name": "",
                  "nodeType": "VariableDeclaration",
                  "scope": 10,
                  "src": "639:7:0",
                  "stateVariable": false,
                  "storageLocation": "default",
                  "typeDescriptions": {
                    "typeIdentifier": "t_address",
                    "typeString": "address"
                  },
                  "typeName": {
                    "id": 3,
                    "name": "address",
                    "nodeType": "ElementaryTypeName",
                    "src": "639:7:0",
                    "stateMutability": "nonpayable",
                    "typeDescriptions": {
                      "typeIdentifier": "t_address",
                      "typeString": "address"
                    }
                  },
                  "visibility": "internal"
                }
              ],
              "src": "638:9:0"
            },
            "scope": 22,
            "src": "586:96:0",
            "stateMutability": "view",
            "virtual": true,
            "visibility": "internal"
          },
          {
            "body": {
              "id": 20,
              "nodeType": "Block",
              "src": "755:165:0",
              "statements": [
                {
                  "expression": {
                    "id": 15,
                    "name": "this",
                    "nodeType": "Identifier",
                    "overloadedDeclarations": [],
                    "referencedDeclaration": 4294967268,
                    "src": "765:4:0",
                    "typeDescriptions": {
                      "typeIdentifier": "t_contract$_Context_$22",
                      "typeString": "contract Context"
                    }
                  },
                  "id": 16,
                  "nodeType": "ExpressionStatement",
                  "src": "765:4:0"
                },
                {
                  "expression": {
                    "expression": {
                      "id": 17,
                      "name": "msg",
                      "nodeType": "Identifier",
                      "overloadedDeclarations": [],
                      "referencedDeclaration": 4294967281,
                      "src": "905:3:0",
                      "typeDescriptions": {
                        "typeIdentifier": "t_magic_message",
                        "typeString": "msg"
                      }
                    },
                    "id": 18,
                    "isConstant": false,
                    "isLValue": false,
                    "isPure": false,
                    "lValueRequested": false,
                    "memberName": "data",
                    "nodeType": "MemberAccess",
                    "src": "905:8:0",
                    "typeDescriptions": {
                      "typeIdentifier": "t_bytes_calldata_ptr",
                      "typeString": "bytes calldata"
                    }
                  },
                  "functionReturnParameters": 14,
                  "id": 19,
                  "nodeType": "Return",
                  "src": "898:15:0"
                }
              ]
            },
            "id": 21,
            "implemented": true,
            "kind": "function",
            "modifiers": [],
            "name": "_msgData",
            "nodeType": "FunctionDefinition",
            "parameters": {
              "id": 11,
              "nodeType": "ParameterList",
              "parameters": [],
              "src": "705:2:0"
            },
            "returnParameters": {
              "id": 14,
              "nodeType": "ParameterList",
              "parameters": [
                {
                  "constant": false,
                  "id": 13,
                  "mutability": "mutable",
                  "name": "",
                  "nodeType": "VariableDeclaration",
                  "scope": 21,
                  "src": "739:14:0",
                  "stateVariable": false,
                  "storageLocation": "calldata",
                  "typeDescriptions": {
                    "typeIdentifier": "t_bytes_calldata_ptr",
                    "typeString": "bytes"
                  },
                  "typeName": {
                    "id": 12,
                    "name": "bytes",
                    "nodeType": "ElementaryTypeName",
                    "src": "739:5:0",
                    "typeDescriptions": {
                      "typeIdentifier": "t_bytes_storage_ptr",
                      "typeString": "bytes"
                    }
                  },
                  "visibility": "internal"
                }
              ],
              "src": "738:16:0"
            },
            "scope": 22,
            "src": "688:232:0",
            "stateMutability": "view",
            "virtual": true,
            "visibility": "internal"
          }
        ],
        "scope": 23,
        "src": "554:368:0"
      }
    ],
    "src": "33:890:0"
  },
  "legacyAST": {
    "absolutePath": "/home/ubuntu/Desktop/CSB2010 Assignment/supply-chain-dapp/contracts/Context.sol",
    "exportedSymbols": {
      "Context": [
        22
      ]
    },
    "id": 23,
    "license": "MIT",
    "nodeType": "SourceUnit",
    "nodes": [
      {
        "id": 1,
        "literals": [
          "solidity",
          "^",
          "0.8",
          ".0"
        ],
        "nodeType": "PragmaDirective",
        "src": "33:23:0"
      },
      {
        "abstract": true,
        "baseContracts": [],
        "contractDependencies": [],
        "contractKind": "contract",
        "fullyImplemented": true,
        "id": 22,
        "linearizedBaseContracts": [
          22
        ],
        "name": "Context",
        "nodeType": "ContractDefinition",
        "nodes": [
          {
            "body": {
              "id": 9,
              "nodeType": "Block",
              "src": "648:34:0",
              "statements": [
                {
                  "expression": {
                    "expression": {
                      "id": 6,
                      "name": "msg",
                      "nodeType": "Identifier",
                      "overloadedDeclarations": [],
                      "referencedDeclaration": 4294967281,
                      "src": "665:3:0",
                      "typeDescriptions": {
                        "typeIdentifier": "t_magic_message",
                        "typeString": "msg"
                      }
                    },
                    "id": 7,
                    "isConstant": false,
                    "isLValue": false,
                    "isPure": false,
                    "lValueRequested": false,
                    "memberName": "sender",
                    "nodeType": "MemberAccess",
                    "src": "665:10:0",
                    "typeDescriptions": {
                      "typeIdentifier": "t_address",
                      "typeString": "address"
                    }
                  },
                  "functionReturnParameters": 5,
                  "id": 8,
                  "nodeType": "Return",
                  "src": "658:17:0"
                }
              ]
            },
            "id": 10,
            "implemented": true,
            "kind": "function",
            "modifiers": [],
            "name": "_msgSender",
            "nodeType": "FunctionDefinition",
            "parameters": {
              "id": 2,
              "nodeType": "ParameterList",
              "parameters": [],
              "src": "605:2:0"
            },
            "returnParameters": {
              "id": 5,
              "nodeType": "ParameterList",
              "parameters": [
                {
                  "constant": false,
                  "id": 4,
                  "mutability": "mutable",
                  "name": "",
                  "nodeType": "VariableDeclaration",
                  "scope": 10,
                  "src": "639:7:0",
                  "stateVariable": false,
                  "storageLocation": "default",
                  "typeDescriptions": {
                    "typeIdentifier": "t_address",
                    "typeString": "address"
                  },
                  "typeName": {
                    "id": 3,
                    "name": "address",
                    "nodeType": "ElementaryTypeName",
                    "src": "639:7:0",
                    "stateMutability": "nonpayable",
                    "typeDescriptions": {
                      "typeIdentifier": "t_address",
                      "typeString": "address"
                    }
                  },
                  "visibility": "internal"
                }
              ],
              "src": "638:9:0"
            },
            "scope": 22,
            "src": "586:96:0",
            "stateMutability": "view",
            "virtual": true,
            "visibility": "internal"
          },
          {
            "body": {
              "id": 20,
              "nodeType": "Block",
              "src": "755:165:0",
              "statements": [
                {
                  "expression": {
                    "id": 15,
                    "name": "this",
                    "nodeType": "Identifier",
                    "overloadedDeclarations": [],
                    "referencedDeclaration": 4294967268,
                    "src": "765:4:0",
                    "typeDescriptions": {
                      "typeIdentifier": "t_contract$_Context_$22",
                      "typeString": "contract Context"
                    }
                  },
                  "id": 16,
                  "nodeType": "ExpressionStatement",
                  "src": "765:4:0"
                },
                {
                  "expression": {
                    "expression": {
                      "id": 17,
                      "name": "msg",
                      "nodeType": "Identifier",
                      "overloadedDeclarations": [],
                      "referencedDeclaration": 4294967281,
                      "src": "905:3:0",
                      "typeDescriptions": {
                        "typeIdentifier": "t_magic_message",
                        "typeString": "msg"
                      }
                    },
                    "id": 18,
                    "isConstant": false,
                    "isLValue": false,
                    "isPure": false,
                    "lValueRequested": false,
                    "memberName": "data",
                    "nodeType": "MemberAccess",
                    "src": "905:8:0",
                    "typeDescriptions": {
                      "typeIdentifier": "t_bytes_calldata_ptr",
                      "typeString": "bytes calldata"
                    }
                  },
                  "functionReturnParameters": 14,
                  "id": 19,
                  "nodeType": "Return",
                  "src": "898:15:0"
                }
              ]
            },
            "id": 21,
            "implemented": true,
            "kind": "function",
            "modifiers": [],
            "name": "_msgData",
            "nodeType": "FunctionDefinition",
            "parameters": {
              "id": 11,
              "nodeType": "ParameterList",
              "parameters": [],
              "src": "705:2:0"
            },
            "returnParameters": {
              "id": 14,
              "nodeType": "ParameterList",
              "parameters": [
                {
                  "constant": false,
                  "id": 13,
                  "mutability": "mutable",
                  "name": "",
                  "nodeType": "VariableDeclaration",
                  "scope": 21,
                  "src": "739:14:0",
                  "stateVariable": false,
                  "storageLocation": "calldata",
                  "typeDescriptions": {
                    "typeIdentifier": "t_bytes_calldata_ptr",
                    "typeString": "bytes"
                  },
                  "typeName": {
                    "id": 12,
                    "name": "bytes",
                    "nodeType": "ElementaryTypeName",
                    "src": "739:5:0",
                    "typeDescriptions": {
                      "typeIdentifier": "t_bytes_storage_ptr",
                      "typeString": "bytes"
                    }
                  },
                  "visibility": "internal"
                }
              ],
              "src": "738:16:0"
            },
            "scope": 22,
            "src": "688:232:0",
            "stateMutability": "view",
            "virtual": true,
            "visibility": "internal"
          }
        ],
        "scope": 23,
        "src": "554:368:0"
      }
    ],
    "src": "33:890:0"
  },
  "compiler": {
    "name": "solc",
    "version": "0.8.0+commit.c7dfd78e.Emscripten.clang"
  },
  "networks": {},
  "schemaVersion": "3.3.4",
  "updatedAt": "2021-03-26T14:59:58.031Z",
  "devdoc": {
    "kind": "dev",
    "methods": {},
    "version": 1
  },
  "userdoc": {
    "kind": "user",
    "methods": {},
    "version": 1
  }
}